%YAML 1.1
%TAG !u! tag:unity3d.com,2011:
--- !u!1045 &1
EditorBuildSettings:
  m_ObjectHideFlags: 0
  serializedVersion: 2
  m_Scenes:
  - enabled: 1
    path: Assets/Scenes/Scene 01.unity
    guid: 3cedc155a17996c4783dd7a938c43886
  - enabled: 1
    path: Assets/Scenes/Scene 02.unity
    guid: cbff7899c27d3cb42a6e0364ac1cfedf
  m_configObjects: {}
